…
``` r
print(cars)
```

    ## # A tibble: 391 x 8
    ##      mpg displacement horsepower weight acceleration cyl   origin
    ##    <dbl>        <dbl>      <dbl>  <dbl>        <dbl> <fct> <fct> 
    ##  1    17           50         17   3504           10 8     1     
    ##  2     7           53         35   3693            8 8     1     
    ##  3    17           51         29   3436            3 8     1     
    ##  4     9           48         29   3433           10 8     1     
    ##  5    13           47         24   3449            2 8     1     
    ##  6     7           59         42   4341            1 8     1     
    ##  7     5           61         47   4354           94 8     1     
    ##  8     5           60         46   4312           93 8     1     
    ##  9     5           62         48   4425            1 8     1     
    ## 10     7           57         40   3850           93 8     1     
    ## # ... with 381 more rows, and 1 more variable: model_year <dbl>

*Dataset woolyrnq*

This data is the quaterly production of woolen yarn in Australia,
included in the package “forecast”.

``` r
wool <- readxl::read_xlsx(here("data", "woolyrnq.xlsx"))
print(wool)
```

    ## # A tibble: 29 x 5
    ##     Year  Qtr1  Qtr2  Qtr3  Qtr4
    ##    <dbl> <dbl> <dbl> <dbl> <dbl>
    ##  1  1965  6172  6709  6633  6660
    ##  2  1966  6786  6800  6730  6765
    ##  3  1967  6720  7133  6946  7095
    ##  4  1968  7047  6757  6915  6921
    ##  5  1969  7064  7206  7190  7402
    ##  6  1970  7819  7300  7105  7259
    ##  7  1971  7001  7475  6840  7061
    ##  8  1972  5845  7529  7819  6943
    ##  9  1973  5714  6556  7045  5947
    ## 10  1974  5463  6127  5540  4235
    ## # ... with 19 more rows
…
